jim-digits4: 10 steps compiled
jim-digits4: Original string:         noal
jim-digits4: Insert.2 rm:             normal
jim-digits4: insert.start ab:         abnormal
jim-digits4: insert.end ly:           lyabnormal
exiting...
