jim-random3: 10 steps compiled
jim-random3: Evenly distributed:
jim-random3: 8, 6, 8, 8, 8, 5, 6, 8, 6, 7, 6, 7, 6, 7, 8, 8, 
		7, 7, 5, 7
jim-random3: Weighted at 5 and 8:
jim-random3: 8, 5, 8, 8, 8, 5, 5, 8, 5, 6, 5, 7, 5, 6, 8, 8, 
		7, 8, 5, 7
exiting...
