luca-cond2: 16 steps compiled
luca-cond2: index 1
luca-cond2: index equals 1
luca-cond2: index less than 3
luca-cond2: index less equal 3
luca-cond2: index 2
luca-cond2: index not equals 1
luca-cond2: index less than 3
luca-cond2: index less equal 3
luca-cond2: index greater equal 2
luca-cond2: index 3
luca-cond2: index not equals 1
luca-cond2: index less equal 3
luca-cond2: index greater equal 2
luca-cond2: index greater than 2
luca-cond2: index 4
luca-cond2: index not equals 1
luca-cond2: index greater equal 2
luca-cond2: index greater than 2
exiting..
