luca-breakcontinue: 22 steps compiled
luca-breakcontinue: before break and continue index: 1
luca-breakcontinue: after break and continue index: 1
luca-breakcontinue: before break and continue index: 2
luca-breakcontinue: continue match
luca-breakcontinue: before break and continue index: 3
luca-breakcontinue: break match
luca-breakcontinue: Second loop
luca-breakcontinue: before break and continue index: 1
luca-breakcontinue: after break and continue index: 1
luca-breakcontinue: before break and continue index: 2
luca-breakcontinue: before break and continue index: 3
exiting...
