luca-case2: 11 steps compiled
luca-case2: index 0
luca-case2: index 1
luca-case2: index is a square
luca-case2: index 2
luca-case2: index is even
luca-case2: index 3
luca-case2: index is odd
luca-case2: index 4
luca-case2: index is a square
exiting...

