bayonne: dx(0): luca-start1a: father: start, id: 
				luca-000-1060947537
bayonne: dx(1): luca-start1b(1): child: start, id: 
				luca-001-1060947539
bayonne: dx(1): luca-start1b(1): child: father id: 
				luca-000-1060947537
bayonne: dx(0): luca-start1a: father: stop
bayonne: dx(1): luca-start1b(1): child: exit
