luca-cond6: 8 steps compiled
luca-cond6: index 1
luca-cond6: index is odd
luca-cond6: index 2
luca-cond6: index is 2 or 3
luca-cond6: index 3
luca-cond6: index is odd
luca-cond6: index is 2 or 3
luca-cond6: index 4
