bayonne: dx(0): luca-start3a: father: start with id: 
					luca-000-1060950823
bayonne: dx(3): luca-start3b(3): child: start with id: 
					luca-003-1060950825
bayonne: dx(3): luca-start3b(3): child: father session-id: 
					luca-000-1060950823
bayonne: dx(2): luca-start3b(2): child: start with id: 
					luca-002-1060950826
bayonne: dx(2): luca-start3b(2): child: father session-id: 
					luca-000-1060950823
bayonne: dx(3): luca-start3b(3): child: exit
bayonne: dx(0): luca-start3a: father: stop
bayonne: dx(2): luca-start3b(2): child: exit
