luca-list: 9 steps compiled
luca-list: list1: a,b,c,d,e
luca-list: list1 second element: b
luca-list: list2: f-g-h-i-l
luca-list: list2 second element (token ,):
luca-list: list2 second element (token -): g
exiting...
