luca-dateProp: 12 steps compiled
luca-dateProp: dayDate 12/25/2003
luca-dateProp: string 10 10
luca-dateProp: 20031225 20031225 thursday
luca-dateProp: 2003 12 25
luca-dateProp: dayStr 20031225
luca-dateProp: string 8 64
luca-dateProp: 20031225 20031225 thursday
luca-dateProp: 2003 12 25
exiting...

