/usr/share/aaprompts/VOICE/audio.au: cannot open
/usr/share/aaprompts/VOICE/audio.au: cannot open
/usr/share/aaprompts/VOICE/audio.wav: cannot open
/usr/share/aaprompts/VOICE/dir:audio.au: cannot open
/home/bayonne/apps/dir/VOICE/audio.au: cannot open
/usr/share/aaprompts/VOICE/audio.au: cannot open

