bayonne: dx(0): luca-send4a: father: start with id: 
				luca-000-1060972221
bayonne: dx(3): luca-send4b(3): child: start with id: 
				luca-003-1060972222
bayonne: dx(3): luca-send4b(3): child: exit
bayonne: dx(0): luca-send4a: stack 3
bayonne: dx(0): luca-send4a: stack 2
bayonne: dx(0): luca-send4a: stack 1
bayonne: dx(0): luca-send4a: father: stop
